T373C 1534:347.168   SEGGER J-Link V6.70 Log File
T373C 1534:347.234   DLL Compiled: Mar 27 2020 14:35:04
T373C 1534:347.245   Logging started @ 2020-06-09 19:15
T373C 1534:347.259 JLINK_SetWarnOutHandler(...)
T373C 1534:347.268 - 0.013ms
T373C 1534:347.280 JLINK_OpenEx(...)
T373C 1534:349.511   Firmware: J-Link ARM-OB STM32 compiled Aug 22 2012 19:52:04
T373C 1534:353.177   Hardware: V7.00
T373C 1534:353.209   S/N: 20090928
T373C 1534:353.224   OEM: SEGGER
T373C 1534:353.236   Feature(s): RDI,FlashDL,FlashBP,JFlash,GDBFull
T373C 1534:355.388   TELNET listener socket opened on port 19021
T373C 1534:360.066   WEBSRV Starting webserver
T373C 1534:360.357   WEBSRV Webserver running on local port 19080
T373C 1534:360.375 - 13.100ms returns "O.K."
T373C 1534:360.396 JLINK_GetEmuCaps()
T373C 1534:360.405 - 0.013ms returns 0x88EA5833
T373C 1534:360.427 JLINK_TIF_GetAvailable(...)
T373C 1534:360.799 - 0.384ms
T373C 1534:360.827 JLINK_SetErrorOutHandler(...)
T373C 1534:360.837 - 0.013ms
T373C 1534:360.856 JLINK_ExecCommand("ProjectFile = "D:\Altium Project\truong-dua\NRF24_TX\MDK-ARM\JLinkSettings.ini"", ...). 
T373C 1534:363.450 - 2.607ms returns 0x00
T373C 1534:366.455 JLINK_ExecCommand("Device = STM32F103C8", ...). 
T373C 1534:369.412   Device "STM32F103C8" selected.
T373C 1534:371.020 - 4.551ms returns 0x00
T373C 1534:371.048 JLINK_ExecCommand("DisableConnectionTimeout", ...). 
T373C 1534:371.064 - 0.008ms returns 0x01
T373C 1534:371.083 JLINK_GetHardwareVersion()
T373C 1534:371.092 - 0.013ms returns 0x11170
T373C 1534:371.104 JLINK_GetDLLVersion()  returns 67000
T373C 1534:371.119 JLINK_GetFirmwareString(...)
T373C 1534:371.128 - 0.012ms
T373C 1534:379.292 JLINK_GetDLLVersion()  returns 67000
T373C 1534:379.321 JLINK_GetCompileDateTime()
T373C 1534:379.331 - 0.013ms
T373C 1534:381.880 JLINK_GetFirmwareString(...)
T373C 1534:381.895 - 0.019ms
T373C 1534:384.444 JLINK_GetHardwareVersion()
T373C 1534:384.458 - 0.018ms returns 0x11170
T373C 1534:394.648 JLINK_TIF_Select(JLINKARM_TIF_SWD)
T373C 1534:396.215 - 1.595ms returns 0x00
T373C 1534:396.257 JLINK_SetSpeed(5000)
T373C 1534:396.804 - 0.572ms
T373C 1534:396.839 JLINK_GetId()
T373C 1534:403.556   Found SW-DP with ID 0x1BA01477
T373C 1534:431.687   Looking for J-Link GUI Server exe at: C:\Keil_v5\ARM\Segger\JLinkGUIServer.exe
T373C 1534:431.783   Looking for J-Link GUI Server exe at: C:\Program Files (x86)\SEGGER\JLink\JLinkGUIServer.exe
T373C 1534:431.836   Forking J-Link GUI Server: C:\Program Files (x86)\SEGGER\JLink\JLinkGUIServer.exe
T373C 1534:456.095   J-Link GUI Server info: "J-Link GUI server V6.70 "
T373C 1536:949.324   Skipping unsecure.
T373C 1536:958.080   Found SW-DP with ID 0x1BA01477
T373C 1536:965.131   Old FW that does not support reading DPIDR via DAP jobs
T373C 1536:978.428   Unknown DP version. Assuming DPv0
T373C 1536:982.228   Scanning AP map to find all available APs
T373C 1536:992.990   AP[1]: Stopped AP scan as end of AP map has been reached
T373C 1536:998.246   AP[0]: AHB-AP (IDR: 0x14770011)
T373C 1537:003.014   Iterating through AP map to find AHB-AP to use
T373C 1537:018.060   AP[0]: Core found
T373C 1537:021.735   AP[0]: AHB-AP ROM base: 0xE00FF000
T373C 1537:031.304   CPUID register: 0x411FC231. Implementer code: 0x41 (ARM)
T373C 1537:035.022   Found Cortex-M3 r1p1, Little endian.
T373C 1537:137.492    -- Max. mem block: 0x00002C18
T373C 1537:137.571    -- CPU_ReadMem(4 bytes @ 0xE000EDF0)
T373C 1537:139.213    -- CPU_WriteMem(4 bytes @ 0xE000EDF0)
T373C 1537:140.313    -- CPU_ReadMem(4 bytes @ 0xE0002000)
T373C 1537:152.885   FPUnit: 6 code (BP) slots and 2 literal slots
T373C 1537:152.947    -- CPU_ReadMem(4 bytes @ 0xE000EDFC)
T373C 1537:153.985    -- CPU_WriteMem(4 bytes @ 0xE000EDFC)
T373C 1537:155.112    -- CPU_ReadMem(4 bytes @ 0xE0001000)
T373C 1537:156.078    -- CPU_WriteMem(4 bytes @ 0xE0001000)
T373C 1537:157.195    -- CPU_ReadMem(4 bytes @ 0xE000ED88)
T373C 1537:158.163    -- CPU_WriteMem(4 bytes @ 0xE000ED88)
T373C 1537:159.058    -- CPU_ReadMem(4 bytes @ 0xE000ED88)
T373C 1537:160.148    -- CPU_WriteMem(4 bytes @ 0xE000ED88)
T373C 1537:172.161   CoreSight components:
T373C 1537:183.064   ROMTbl[0] @ E00FF000
T373C 1537:183.131    -- CPU_ReadMem(64 bytes @ 0xE00FF000)
T373C 1537:184.708    -- CPU_ReadMem(32 bytes @ 0xE000EFE0)
T373C 1537:191.390   ROMTbl[0][0]: E000E000, CID: B105E00D, PID: 001BB000 SCS
T373C 1537:191.418    -- CPU_ReadMem(32 bytes @ 0xE0001FE0)
T373C 1537:197.827   ROMTbl[0][1]: E0001000, CID: B105E00D, PID: 001BB002 DWT
T373C 1537:197.866    -- CPU_ReadMem(32 bytes @ 0xE0002FE0)
T373C 1537:204.136   ROMTbl[0][2]: E0002000, CID: B105E00D, PID: 000BB003 FPB
T373C 1537:204.163    -- CPU_ReadMem(32 bytes @ 0xE0000FE0)
T373C 1537:210.382   ROMTbl[0][3]: E0000000, CID: B105E00D, PID: 001BB001 ITM
T373C 1537:210.410    -- CPU_ReadMem(32 bytes @ 0xE0040FE0)
T373C 1537:216.477   ROMTbl[0][4]: E0040000, CID: B105900D, PID: 001BB923 TPIU-Lite
T373C 1537:217.708 - 2820.877ms   returns 0x1BA01477
T373C 1537:217.730 JLINK_GetDLLVersion()  returns 67000
T373C 1537:217.744 JLINK_CORE_GetFound()
T373C 1537:217.750 - 0.009ms returns 0x30000FF
T373C 1537:218.484 JLINK_GetDebugInfo(0x100 = JLINKARM_ROM_TABLE_ADDR_INDEX)
T373C 1537:218.505   Value=0xE00FF000
T373C 1537:218.516 - 0.036ms returns 0x00
T373C 1537:222.507 JLINK_GetDebugInfo(0x100 = JLINKARM_ROM_TABLE_ADDR_INDEX)
T373C 1537:222.521   Value=0xE00FF000
T373C 1537:222.530 - 0.026ms returns 0x00
T373C 1537:222.538 JLINK_GetDebugInfo(0x101 = JLINKARM_DEBUG_INFO_ETM_ADDR_INDEX)
T373C 1537:222.545   Value=0x00000000
T373C 1537:222.553 - 0.017ms returns 0x00
T373C 1537:222.564   JLINK_ReadMemEx(0xE0041FF0, 0x0010 Bytes, ..., Flags = 0x02000004)
T373C 1537:222.591    -- CPU_ReadMem(16 bytes @ 0xE0041FF0)
T373C 1537:223.544   Data:  00 00 00 00 00 00 00 00 00 00 00 00 00 00 00 00
T373C 1537:223.557 - 0.996ms returns 0x10
T373C 1537:223.566 JLINK_GetDebugInfo(0x102 = JLINKARM_DEBUG_INFO_MTB_ADDR_INDEX)
T373C 1537:223.573   Value=0x00000000
T373C 1537:223.581 - 0.017ms returns 0x00
T373C 1537:223.588 JLINK_GetDebugInfo(0x103 = JLINKARM_DEBUG_INFO_TPIU_ADDR_INDEX)
T373C 1537:223.594   Value=0xE0040000
T373C 1537:223.602 - 0.016ms returns 0x00
T373C 1537:223.610 JLINK_GetDebugInfo(0x104 = JLINKARM_DEBUG_INFO_ITM_ADDR_INDEX)
T373C 1537:223.616   Value=0xE0000000
T373C 1537:223.623 - 0.016ms returns 0x00
T373C 1537:223.631 JLINK_GetDebugInfo(0x105 = JLINKARM_DEBUG_INFO_DWT_ADDR_INDEX)
T373C 1537:223.637   Value=0xE0001000
T373C 1537:223.645 - 0.016ms returns 0x00
T373C 1537:223.652 JLINK_GetDebugInfo(0x106 = JLINKARM_DEBUG_INFO_FPB_ADDR_INDEX)
T373C 1537:223.658   Value=0xE0002000
T373C 1537:223.666 - 0.016ms returns 0x00
T373C 1537:223.673 JLINK_GetDebugInfo(0x107 = JLINKARM_DEBUG_INFO_NVIC_ADDR_INDEX)
T373C 1537:223.679   Value=0xE000E000
T373C 1537:223.687 - 0.016ms returns 0x00
T373C 1537:223.694 JLINK_GetDebugInfo(0x10C = JLINKARM_DEBUG_INFO_DBG_ADDR_INDEX)
T373C 1537:223.700   Value=0xE000EDF0
T373C 1537:223.708 - 0.016ms returns 0x00
T373C 1537:223.715 JLINK_GetDebugInfo(0x01 = Unknown)
T373C 1537:223.721   Value=0x00000000
T373C 1537:223.729 - 0.016ms returns 0x00
T373C 1537:223.738 JLINK_ReadMemU32(0xE000ED00, 0x0001 Items, ...)
T373C 1537:223.750    -- CPU_ReadMem(4 bytes @ 0xE000ED00)
T373C 1537:224.674   Data:  31 C2 1F 41
T373C 1537:224.686    - CPUID
T373C 1537:224.694 - 0.959ms returns 1
T373C 1537:224.704 JLINK_GetDebugInfo(0x10F = JLINKARM_DEBUG_INFO_HAS_CORTEX_M_SECURITY_EXT_INDEX)
T373C 1537:224.710   Value=0x00000000
T373C 1537:224.718 - 0.017ms returns 0x00
T373C 1537:224.730 JLINK_SetResetType(JLINKARM_CM3_RESET_TYPE_NORMAL)
T373C 1537:224.736 - 0.009ms returns JLINKARM_CM3_RESET_TYPE_NORMAL
T373C 1537:224.745 JLINK_Reset()
T373C 1537:224.756   CPU is running
T373C 1537:224.767    -- CPU_WriteMem(4 bytes @ 0xE000EDF0)
T373C 1537:225.663   CPU is running
T373C 1537:225.687    -- CPU_WriteMem(4 bytes @ 0xE000EDFC)
T373C 1537:230.313   Reset: Halt core after reset via DEMCR.VC_CORERESET.
T373C 1537:235.383   Reset: Reset device via AIRCR.SYSRESETREQ.
T373C 1537:235.406   CPU is running
T373C 1537:235.423    -- CPU_WriteMem(4 bytes @ 0xE000ED0C)
T373C 1537:290.488    -- CPU_ReadMem(4 bytes @ 0xE000EDF0)
T373C 1537:291.539    -- CPU_ReadMem(4 bytes @ 0xE000EDF0)
T373C 1537:292.409    -- CPU_ReadMem(4 bytes @ 0xE000EDF0)
T373C 1537:293.267    -- CPU_ReadMem(4 bytes @ 0xE000EDF0)
T373C 1537:294.333    -- CPU_ReadMem(4 bytes @ 0xE000EDF0)
T373C 1537:295.483    -- CPU_ReadMem(4 bytes @ 0xE000EDF0)
T373C 1537:296.609    -- CPU_ReadMem(4 bytes @ 0xE000EDF0)
T373C 1537:297.741    -- CPU_ReadMem(4 bytes @ 0xE000EDF0)
T373C 1537:298.829    -- CPU_ReadMem(4 bytes @ 0xE000EDF0)
T373C 1537:299.831    -- CPU_ReadMem(4 bytes @ 0xE000EDF0)
T373C 1537:300.706    -- CPU_ReadMem(4 bytes @ 0xE000EDF0)
T373C 1537:301.726    -- CPU_ReadMem(4 bytes @ 0xE000EDF0)
T373C 1537:302.827    -- CPU_ReadMem(4 bytes @ 0xE000EDF0)
T373C 1537:303.854    -- CPU_ReadMem(4 bytes @ 0xE000EDF0)
T373C 1537:304.975    -- CPU_ReadMem(4 bytes @ 0xE000EDF0)
T373C 1537:306.098    -- CPU_ReadMem(4 bytes @ 0xE000EDF0)
T373C 1537:307.192    -- CPU_ReadMem(4 bytes @ 0xE000EDF0)
T373C 1537:308.043    -- CPU_ReadMem(4 bytes @ 0xE000EDF0)
T373C 1537:308.917    -- CPU_ReadMem(4 bytes @ 0xE000EDF0)
T373C 1537:309.791    -- CPU_ReadMem(4 bytes @ 0xE000EDF0)
T373C 1537:310.665    -- CPU_ReadMem(4 bytes @ 0xE000EDF0)
T373C 1537:311.532    -- CPU_ReadMem(4 bytes @ 0xE000EDF0)
T373C 1537:312.536    -- CPU_ReadMem(4 bytes @ 0xE000EDF0)
T373C 1537:313.538    -- CPU_ReadMem(4 bytes @ 0xE000EDF0)
T373C 1537:314.545    -- CPU_ReadMem(4 bytes @ 0xE000EDF0)
T373C 1537:315.534    -- CPU_ReadMem(4 bytes @ 0xE000EDF0)
T373C 1537:316.393    -- CPU_ReadMem(4 bytes @ 0xE000EDF0)
T373C 1537:317.287    -- CPU_ReadMem(4 bytes @ 0xE000EDF0)
T373C 1537:318.168    -- CPU_ReadMem(4 bytes @ 0xE000EDF0)
T373C 1537:319.042    -- CPU_ReadMem(4 bytes @ 0xE000EDF0)
T373C 1537:319.916    -- CPU_ReadMem(4 bytes @ 0xE000EDF0)
T373C 1537:320.773    -- CPU_ReadMem(4 bytes @ 0xE000EDF0)
T373C 1537:321.643    -- CPU_ReadMem(4 bytes @ 0xE000EDF0)
T373C 1537:322.540    -- CPU_ReadMem(4 bytes @ 0xE000EDF0)
T373C 1537:323.540    -- CPU_ReadMem(4 bytes @ 0xE000EDF0)
T373C 1537:324.542    -- CPU_ReadMem(4 bytes @ 0xE000EDF0)
T373C 1537:325.543    -- CPU_ReadMem(4 bytes @ 0xE000EDF0)
T373C 1537:326.541    -- CPU_ReadMem(4 bytes @ 0xE000EDF0)
T373C 1537:327.524    -- CPU_ReadMem(4 bytes @ 0xE000EDF0)
T373C 1537:328.543    -- CPU_ReadMem(4 bytes @ 0xE000EDF0)
T373C 1537:329.546    -- CPU_ReadMem(4 bytes @ 0xE000EDF0)
T373C 1537:330.542    -- CPU_ReadMem(4 bytes @ 0xE000EDF0)
T373C 1537:331.546    -- CPU_ReadMem(4 bytes @ 0xE000EDF0)
T373C 1537:332.547    -- CPU_ReadMem(4 bytes @ 0xE000EDF0)
T373C 1537:333.544    -- CPU_ReadMem(4 bytes @ 0xE000EDF0)
T373C 1537:334.577    -- CPU_ReadMem(4 bytes @ 0xE000EDF0)
T373C 1537:335.554    -- CPU_ReadMem(4 bytes @ 0xE000EDF0)
T373C 1537:336.549    -- CPU_ReadMem(4 bytes @ 0xE000EDF0)
T373C 1537:337.553    -- CPU_ReadMem(4 bytes @ 0xE000EDF0)
T373C 1537:338.540    -- CPU_ReadMem(4 bytes @ 0xE000EDF0)
T373C 1537:339.512    -- CPU_ReadMem(4 bytes @ 0xE000EDF0)
T373C 1537:340.538    -- CPU_ReadMem(4 bytes @ 0xE000EDF0)
T373C 1537:341.549    -- CPU_ReadMem(4 bytes @ 0xE000EDF0)
T373C 1537:342.540    -- CPU_ReadMem(4 bytes @ 0xE000EDF0)
T373C 1537:343.513    -- CPU_ReadMem(4 bytes @ 0xE000EDF0)
T373C 1537:344.534    -- CPU_ReadMem(4 bytes @ 0xE000EDF0)
T373C 1537:345.545    -- CPU_ReadMem(4 bytes @ 0xE000EDF0)
T373C 1537:346.538    -- CPU_ReadMem(4 bytes @ 0xE000EDF0)
T373C 1537:347.544    -- CPU_ReadMem(4 bytes @ 0xE000EDF0)
T373C 1537:348.539    -- CPU_ReadMem(4 bytes @ 0xE000EDF0)
T373C 1537:349.542    -- CPU_ReadMem(4 bytes @ 0xE000EDF0)
T373C 1537:350.537    -- CPU_ReadMem(4 bytes @ 0xE000EDF0)
T373C 1537:351.511    -- CPU_ReadMem(4 bytes @ 0xE000EDF0)
T373C 1537:352.535    -- CPU_ReadMem(4 bytes @ 0xE000EDF0)
T373C 1537:353.528    -- CPU_ReadMem(4 bytes @ 0xE000EDF0)
T373C 1537:354.535    -- CPU_ReadMem(4 bytes @ 0xE000EDF0)
T373C 1537:355.461    -- CPU_ReadMem(4 bytes @ 0xE000EDF0)
T373C 1537:356.524    -- CPU_ReadMem(4 bytes @ 0xE000EDF0)
T373C 1537:357.487    -- CPU_ReadMem(4 bytes @ 0xE000EDF0)
T373C 1537:358.539    -- CPU_ReadMem(4 bytes @ 0xE000EDF0)
T373C 1537:359.530    -- CPU_ReadMem(4 bytes @ 0xE000EDF0)
T373C 1537:360.390    -- CPU_ReadMem(4 bytes @ 0xE000EDF0)
T373C 1537:361.267    -- CPU_ReadMem(4 bytes @ 0xE000EDF0)
T373C 1537:362.138    -- CPU_ReadMem(4 bytes @ 0xE000EDF0)
T373C 1537:363.011    -- CPU_ReadMem(4 bytes @ 0xE000EDF0)
T373C 1537:363.890    -- CPU_ReadMem(4 bytes @ 0xE000EDF0)
T373C 1537:364.766    -- CPU_ReadMem(4 bytes @ 0xE000EDF0)
T373C 1537:365.641    -- CPU_ReadMem(4 bytes @ 0xE000EDF0)
T373C 1537:366.485    -- CPU_ReadMem(4 bytes @ 0xE000EDF0)
T373C 1537:367.390    -- CPU_ReadMem(4 bytes @ 0xE000EDF0)
T373C 1537:368.264    -- CPU_ReadMem(4 bytes @ 0xE000EDF0)
T373C 1537:369.139    -- CPU_ReadMem(4 bytes @ 0xE000EDF0)
T373C 1537:370.015    -- CPU_ReadMem(4 bytes @ 0xE000EDF0)
T373C 1537:370.889    -- CPU_ReadMem(4 bytes @ 0xE000EDF0)
T373C 1537:371.764    -- CPU_ReadMem(4 bytes @ 0xE000EDF0)
T373C 1537:372.640    -- CPU_ReadMem(4 bytes @ 0xE000EDF0)
T373C 1537:373.504    -- CPU_ReadMem(4 bytes @ 0xE000EDF0)
T373C 1537:374.367    -- CPU_ReadMem(4 bytes @ 0xE000EDF0)
T373C 1537:375.243    -- CPU_ReadMem(4 bytes @ 0xE000EDF0)
T373C 1537:376.182    -- CPU_ReadMem(4 bytes @ 0xE000EDF0)
T373C 1537:377.048    -- CPU_ReadMem(4 bytes @ 0xE000EDF0)
T373C 1537:377.921    -- CPU_ReadMem(4 bytes @ 0xE000EDF0)
T373C 1537:378.827    -- CPU_ReadMem(4 bytes @ 0xE000EDF0)
T373C 1537:379.659    -- CPU_ReadMem(4 bytes @ 0xE000EDF0)
T373C 1537:380.563    -- CPU_ReadMem(4 bytes @ 0xE000EDF0)
T373C 1537:381.585    -- CPU_ReadMem(4 bytes @ 0xE000EDF0)
T373C 1537:382.558    -- CPU_ReadMem(4 bytes @ 0xE000EDF0)
T373C 1537:383.461    -- CPU_ReadMem(4 bytes @ 0xE000EDF0)
T373C 1537:384.546    -- CPU_ReadMem(4 bytes @ 0xE000EDF0)
T373C 1537:385.412    -- CPU_ReadMem(4 bytes @ 0xE000EDF0)
T373C 1537:386.289    -- CPU_ReadMem(4 bytes @ 0xE000EDF0)
T373C 1537:387.118    -- CPU_ReadMem(4 bytes @ 0xE000EDF0)
T373C 1537:387.995    -- CPU_ReadMem(4 bytes @ 0xE000EDF0)
T373C 1537:388.867    -- CPU_ReadMem(4 bytes @ 0xE000EDF0)
T373C 1537:389.751    -- CPU_ReadMem(4 bytes @ 0xE000EDF0)
T373C 1537:390.616    -- CPU_ReadMem(4 bytes @ 0xE000EDF0)
T373C 1537:391.492    -- CPU_ReadMem(4 bytes @ 0xE000EDF0)
T373C 1537:392.366    -- CPU_ReadMem(4 bytes @ 0xE000EDF0)
T373C 1537:393.240    -- CPU_ReadMem(4 bytes @ 0xE000EDF0)
T373C 1537:394.145    -- CPU_ReadMem(4 bytes @ 0xE000EDF0)
T373C 1537:395.016    -- CPU_ReadMem(4 bytes @ 0xE000EDF0)
T373C 1537:395.893    -- CPU_ReadMem(4 bytes @ 0xE000EDF0)
T373C 1537:396.770    -- CPU_ReadMem(4 bytes @ 0xE000EDF0)
T373C 1537:397.615    -- CPU_ReadMem(4 bytes @ 0xE000EDF0)
T373C 1537:398.518    -- CPU_ReadMem(4 bytes @ 0xE000EDF0)
T373C 1537:399.387    -- CPU_ReadMem(4 bytes @ 0xE000EDF0)
T373C 1537:400.267    -- CPU_ReadMem(4 bytes @ 0xE000EDF0)
T373C 1537:401.141    -- CPU_ReadMem(4 bytes @ 0xE000EDF0)
T373C 1537:402.015    -- CPU_ReadMem(4 bytes @ 0xE000EDF0)
T373C 1537:402.889    -- CPU_ReadMem(4 bytes @ 0xE000EDF0)
T373C 1537:403.772    -- CPU_ReadMem(4 bytes @ 0xE000EDF0)
T373C 1537:404.636    -- CPU_ReadMem(4 bytes @ 0xE000EDF0)
T373C 1537:405.519    -- CPU_ReadMem(4 bytes @ 0xE000EDF0)
T373C 1537:406.390    -- CPU_ReadMem(4 bytes @ 0xE000EDF0)
T373C 1537:407.265    -- CPU_ReadMem(4 bytes @ 0xE000EDF0)
T373C 1537:408.138    -- CPU_ReadMem(4 bytes @ 0xE000EDF0)
T373C 1537:409.016    -- CPU_ReadMem(4 bytes @ 0xE000EDF0)
T373C 1537:409.893    -- CPU_ReadMem(4 bytes @ 0xE000EDF0)
T373C 1537:410.763    -- CPU_ReadMem(4 bytes @ 0xE000EDF0)
T373C 1537:411.651    -- CPU_ReadMem(4 bytes @ 0xE000EDF0)
T373C 1537:412.514    -- CPU_ReadMem(4 bytes @ 0xE000EDF0)
T373C 1537:413.391    -- CPU_ReadMem(4 bytes @ 0xE000EDF0)
T373C 1537:414.266    -- CPU_ReadMem(4 bytes @ 0xE000EDF0)
T373C 1537:415.139    -- CPU_ReadMem(4 bytes @ 0xE000EDF0)
T373C 1537:415.995    -- CPU_ReadMem(4 bytes @ 0xE000EDF0)
T373C 1537:417.001    -- CPU_ReadMem(4 bytes @ 0xE000EDF0)
T373C 1537:417.937    -- CPU_ReadMem(4 bytes @ 0xE000EDF0)
T373C 1537:418.777    -- CPU_ReadMem(4 bytes @ 0xE000EDF0)
T373C 1537:419.684    -- CPU_ReadMem(4 bytes @ 0xE000EDF0)
T373C 1537:420.554    -- CPU_ReadMem(4 bytes @ 0xE000EDF0)
T373C 1537:421.584    -- CPU_ReadMem(4 bytes @ 0xE000EDF0)
T373C 1537:422.580    -- CPU_ReadMem(4 bytes @ 0xE000EDF0)
T373C 1537:423.558    -- CPU_ReadMem(4 bytes @ 0xE000EDF0)
T373C 1537:424.424    -- CPU_ReadMem(4 bytes @ 0xE000EDF0)
T373C 1537:425.539    -- CPU_ReadMem(4 bytes @ 0xE000EDF0)
T373C 1537:426.365    -- CPU_ReadMem(4 bytes @ 0xE000EDF0)
T373C 1537:427.237    -- CPU_ReadMem(4 bytes @ 0xE000EDF0)
T373C 1537:428.119    -- CPU_ReadMem(4 bytes @ 0xE000EDF0)
T373C 1537:429.000    -- CPU_ReadMem(4 bytes @ 0xE000EDF0)
T373C 1537:429.866    -- CPU_ReadMem(4 bytes @ 0xE000EDF0)
T373C 1537:430.743    -- CPU_ReadMem(4 bytes @ 0xE000EDF0)
T373C 1537:431.627    -- CPU_ReadMem(4 bytes @ 0xE000EDF0)
T373C 1537:432.490    -- CPU_ReadMem(4 bytes @ 0xE000EDF0)
T373C 1537:433.371    -- CPU_ReadMem(4 bytes @ 0xE000EDF0)
T373C 1537:434.243    -- CPU_ReadMem(4 bytes @ 0xE000EDF0)
T373C 1537:435.115    -- CPU_ReadMem(4 bytes @ 0xE000EDF0)
T373C 1537:436.020    -- CPU_ReadMem(4 bytes @ 0xE000EDF0)
T373C 1537:437.075    -- CPU_ReadMem(4 bytes @ 0xE000EDF0)
T373C 1537:438.210    -- CPU_ReadMem(4 bytes @ 0xE000EDF0)
T373C 1537:439.206    -- CPU_ReadMem(4 bytes @ 0xE000EDF0)
T373C 1537:440.362    -- CPU_ReadMem(4 bytes @ 0xE000EDF0)
T373C 1537:441.488    -- CPU_ReadMem(4 bytes @ 0xE000EDF0)
T373C 1537:442.618    -- CPU_ReadMem(4 bytes @ 0xE000EDF0)
T373C 1537:443.730    -- CPU_ReadMem(4 bytes @ 0xE000EDF0)
T373C 1537:444.831    -- CPU_ReadMem(4 bytes @ 0xE000EDF0)
T373C 1537:445.954    -- CPU_ReadMem(4 bytes @ 0xE000EDF0)
T373C 1537:447.112    -- CPU_ReadMem(4 bytes @ 0xE000EDF0)
T373C 1537:448.101    -- CPU_ReadMem(4 bytes @ 0xE000EDF0)
T373C 1537:449.234    -- CPU_ReadMem(4 bytes @ 0xE000EDF0)
T373C 1537:450.356    -- CPU_ReadMem(4 bytes @ 0xE000EDF0)
T373C 1537:451.437    -- CPU_ReadMem(4 bytes @ 0xE000EDF0)
T373C 1537:452.561    -- CPU_ReadMem(4 bytes @ 0xE000EDF0)
T373C 1537:453.552    -- CPU_ReadMem(4 bytes @ 0xE000EDF0)
T373C 1537:454.561    -- CPU_ReadMem(4 bytes @ 0xE000EDF0)
T373C 1537:455.517    -- CPU_ReadMem(4 bytes @ 0xE000EDF0)
T373C 1537:456.516    -- CPU_ReadMem(4 bytes @ 0xE000EDF0)
T373C 1537:457.387    -- CPU_ReadMem(4 bytes @ 0xE000EDF0)
T373C 1537:458.264    -- CPU_ReadMem(4 bytes @ 0xE000EDF0)
T373C 1537:459.140    -- CPU_ReadMem(4 bytes @ 0xE000EDF0)
T373C 1537:460.020    -- CPU_ReadMem(4 bytes @ 0xE000EDF0)
T373C 1537:460.889    -- CPU_ReadMem(4 bytes @ 0xE000EDF0)
T373C 1537:461.735    -- CPU_ReadMem(4 bytes @ 0xE000EDF0)
T373C 1537:462.643    -- CPU_ReadMem(4 bytes @ 0xE000EDF0)
T373C 1537:463.514    -- CPU_ReadMem(4 bytes @ 0xE000EDF0)
T373C 1537:464.513    -- CPU_ReadMem(4 bytes @ 0xE000EDF0)
T373C 1537:465.390    -- CPU_ReadMem(4 bytes @ 0xE000EDF0)
T373C 1537:466.264    -- CPU_ReadMem(4 bytes @ 0xE000EDF0)
T373C 1537:467.139    -- CPU_ReadMem(4 bytes @ 0xE000EDF0)
T373C 1537:468.018    -- CPU_ReadMem(4 bytes @ 0xE000EDF0)
T373C 1537:468.889    -- CPU_ReadMem(4 bytes @ 0xE000EDF0)
T373C 1537:469.775    -- CPU_ReadMem(4 bytes @ 0xE000EDF0)
T373C 1537:470.640    -- CPU_ReadMem(4 bytes @ 0xE000EDF0)
T373C 1537:471.517    -- CPU_ReadMem(4 bytes @ 0xE000EDF0)
T373C 1537:472.514    -- CPU_ReadMem(4 bytes @ 0xE000EDF0)
T373C 1537:473.517    -- CPU_ReadMem(4 bytes @ 0xE000EDF0)
T373C 1537:474.389    -- CPU_ReadMem(4 bytes @ 0xE000EDF0)
T373C 1537:475.491    -- CPU_ReadMem(4 bytes @ 0xE000EDF0)
T373C 1537:476.612    -- CPU_ReadMem(4 bytes @ 0xE000EDF0)
T373C 1537:477.735    -- CPU_ReadMem(4 bytes @ 0xE000EDF0)
T373C 1537:478.706    -- CPU_ReadMem(4 bytes @ 0xE000EDF0)
T373C 1537:479.821    -- CPU_ReadMem(4 bytes @ 0xE000EDF0)
T373C 1537:480.666    -- CPU_ReadMem(4 bytes @ 0xE000EDF0)
T373C 1537:481.537    -- CPU_ReadMem(4 bytes @ 0xE000EDF0)
T373C 1537:482.520    -- CPU_ReadMem(4 bytes @ 0xE000EDF0)
T373C 1537:483.573    -- CPU_ReadMem(4 bytes @ 0xE000EDF0)
T373C 1537:484.542    -- CPU_ReadMem(4 bytes @ 0xE000EDF0)
T373C 1537:485.562    -- CPU_ReadMem(4 bytes @ 0xE000EDF0)
T373C 1537:486.522    -- CPU_ReadMem(4 bytes @ 0xE000EDF0)
T373C 1537:487.565    -- CPU_ReadMem(4 bytes @ 0xE000EDF0)
T373C 1537:488.534    -- CPU_ReadMem(4 bytes @ 0xE000EDF0)
T373C 1537:489.565    -- CPU_ReadMem(4 bytes @ 0xE000EDF0)
T373C 1537:490.514    -- CPU_ReadMem(4 bytes @ 0xE000EDF0)
T373C 1537:491.388    -- CPU_ReadMem(4 bytes @ 0xE000EDF0)
T373C 1537:492.262    -- CPU_ReadMem(4 bytes @ 0xE000EDF0)
T373C 1537:493.137    -- CPU_ReadMem(4 bytes @ 0xE000EDF0)
T373C 1537:494.019    -- CPU_ReadMem(4 bytes @ 0xE000EDF0)
T373C 1537:494.900    -- CPU_ReadMem(4 bytes @ 0xE000EDF0)
T373C 1537:495.766    -- CPU_ReadMem(4 bytes @ 0xE000EDF0)
T373C 1537:496.643    -- CPU_ReadMem(4 bytes @ 0xE000EDF0)
T373C 1537:497.515    -- CPU_ReadMem(4 bytes @ 0xE000EDF0)
T373C 1537:498.371    -- CPU_ReadMem(4 bytes @ 0xE000EDF0)
T373C 1537:499.243    -- CPU_ReadMem(4 bytes @ 0xE000EDF0)
T373C 1537:500.118    -- CPU_ReadMem(4 bytes @ 0xE000EDF0)
T373C 1537:501.001    -- CPU_ReadMem(4 bytes @ 0xE000EDF0)
T373C 1537:501.935    -- CPU_ReadMem(4 bytes @ 0xE000EDF0)
T373C 1537:502.803    -- CPU_ReadMem(4 bytes @ 0xE000EDF0)
T373C 1537:503.683    -- CPU_ReadMem(4 bytes @ 0xE000EDF0)
T373C 1537:504.685    -- CPU_ReadMem(4 bytes @ 0xE000EDF0)
T373C 1537:505.565    -- CPU_ReadMem(4 bytes @ 0xE000EDF0)
T373C 1537:506.581    -- CPU_ReadMem(4 bytes @ 0xE000EDF0)
T373C 1537:507.568    -- CPU_ReadMem(4 bytes @ 0xE000EDF0)
T373C 1537:508.581    -- CPU_ReadMem(4 bytes @ 0xE000EDF0)
T373C 1537:509.556    -- CPU_ReadMem(4 bytes @ 0xE000EDF0)
T373C 1537:510.578    -- CPU_ReadMem(4 bytes @ 0xE000EDF0)
T373C 1537:511.588    -- CPU_ReadMem(4 bytes @ 0xE000EDF0)
T373C 1537:512.555    -- CPU_ReadMem(4 bytes @ 0xE000EDF0)
T373C 1537:513.586    -- CPU_ReadMem(4 bytes @ 0xE000EDF0)
T373C 1537:514.561    -- CPU_ReadMem(4 bytes @ 0xE000EDF0)
T373C 1537:515.551    -- CPU_ReadMem(4 bytes @ 0xE000EDF0)
T373C 1537:516.590    -- CPU_ReadMem(4 bytes @ 0xE000EDF0)
T373C 1537:517.561    -- CPU_ReadMem(4 bytes @ 0xE000EDF0)
T373C 1537:518.582    -- CPU_ReadMem(4 bytes @ 0xE000EDF0)
T373C 1537:519.588    -- CPU_ReadMem(4 bytes @ 0xE000EDF0)
T373C 1537:520.556    -- CPU_ReadMem(4 bytes @ 0xE000EDF0)
T373C 1537:521.579    -- CPU_ReadMem(4 bytes @ 0xE000EDF0)
T373C 1537:522.559    -- CPU_ReadMem(4 bytes @ 0xE000EDF0)
T373C 1537:523.579    -- CPU_ReadMem(4 bytes @ 0xE000EDF0)
T373C 1537:524.556    -- CPU_ReadMem(4 bytes @ 0xE000EDF0)
T373C 1537:525.581    -- CPU_ReadMem(4 bytes @ 0xE000EDF0)
T373C 1537:526.562    -- CPU_ReadMem(4 bytes @ 0xE000EDF0)
T373C 1537:527.581    -- CPU_ReadMem(4 bytes @ 0xE000EDF0)
T373C 1537:528.555    -- CPU_ReadMem(4 bytes @ 0xE000EDF0)
T373C 1537:529.585    -- CPU_ReadMem(4 bytes @ 0xE000EDF0)
T373C 1537:530.558    -- CPU_ReadMem(4 bytes @ 0xE000EDF0)
T373C 1537:531.576    -- CPU_ReadMem(4 bytes @ 0xE000EDF0)
T373C 1537:532.558    -- CPU_ReadMem(4 bytes @ 0xE000EDF0)
T373C 1537:533.579    -- CPU_ReadMem(4 bytes @ 0xE000EDF0)
T373C 1537:534.557    -- CPU_ReadMem(4 bytes @ 0xE000EDF0)
T373C 1537:535.580    -- CPU_ReadMem(4 bytes @ 0xE000EDF0)
T373C 1537:536.572    -- CPU_ReadMem(4 bytes @ 0xE000EDF0)
T373C 1537:537.569    -- CPU_ReadMem(4 bytes @ 0xE000EDF0)
T373C 1537:538.571    -- CPU_ReadMem(4 bytes @ 0xE000EDF0)
T373C 1537:539.558    -- CPU_ReadMem(4 bytes @ 0xE000EDF0)
T373C 1537:540.580    -- CPU_ReadMem(4 bytes @ 0xE000EDF0)
T373C 1537:541.579    -- CPU_ReadMem(4 bytes @ 0xE000EDF0)
T373C 1537:542.558    -- CPU_ReadMem(4 bytes @ 0xE000EDF0)
T373C 1537:556.591   Reset: S_RESET_ST never gets cleared. CPU seems to be kept in reset forever.
T373C 1537:567.646   Reset: Using fallback: Reset pin.
T373C 1537:567.703   CPU is running
T373C 1537:567.736    -- CPU_WriteMem(4 bytes @ 0xE000EDF0)
T373C 1537:568.831   CPU is running
T373C 1537:568.890    -- CPU_WriteMem(4 bytes @ 0xE000EDFC)
T373C 1537:578.427   Reset: Halt core after reset via DEMCR.VC_CORERESET.
T373C 1537:584.633   Reset: Reset device via reset pin
T373C 1537:792.562   RESET (pin 15) high, but should be low. Please check target hardware.
T373C 1537:927.505   Reset: VC_CORERESET did not halt CPU. (Debug logic also reset by reset pin?).
T373C 1537:937.409   Reset: Reconnecting and manually halting CPU.
T373C 1537:946.197   Found SW-DP with ID 0x1BA01477
T373C 1537:954.709   Old FW that does not support reading DPIDR via DAP jobs
T373C 1537:972.555   Unknown DP version. Assuming DPv0
T373C 1537:979.688   AP map detection skipped. Manually configured AP map found.
T373C 1537:987.301   AP[0]: AHB-AP (IDR: Not set)
T373C 1538:002.043   AP[0]: Core found
T373C 1538:005.860   AP[0]: AHB-AP ROM base: 0xE00FF000
T373C 1538:015.363   CPUID register: 0x411FC231. Implementer code: 0x41 (ARM)
T373C 1538:019.364   Found Cortex-M3 r1p1, Little endian.
T373C 1538:135.861   CPU could not be halted
T373C 1538:135.940   CPU is running
T373C 1538:135.975    -- CPU_WriteMem(4 bytes @ 0xE000EDFC)
T373C 1538:142.893    -- CPU_ReadMem(4 bytes @ 0xE000EDF0)
T373C 1538:156.209   Reset: Core did not halt after reset, trying to disable WDT.
T373C 1538:156.277   CPU is running
T373C 1538:156.309    -- CPU_WriteMem(4 bytes @ 0xE000EDF0)
T373C 1538:157.350   CPU is running
T373C 1538:157.408    -- CPU_WriteMem(4 bytes @ 0xE000EDFC)
T373C 1538:169.781   Reset: Halt core after reset via DEMCR.VC_CORERESET.
T373C 1538:177.145   Reset: Reset device via reset pin
T373C 1538:382.837   RESET (pin 15) high, but should be low. Please check target hardware.
T373C 1538:516.786   Reset: VC_CORERESET did not halt CPU. (Debug logic also reset by reset pin?).
T373C 1538:528.181   Reset: Reconnecting and manually halting CPU.
T373C 1538:537.307   Found SW-DP with ID 0x1BA01477
T373C 1538:545.218   Old FW that does not support reading DPIDR via DAP jobs
T373C 1538:558.211   Unknown DP version. Assuming DPv0
T373C 1538:562.045   AP map detection skipped. Manually configured AP map found.
T373C 1538:565.820   AP[0]: AHB-AP (IDR: Not set)
T373C 1538:580.826   AP[0]: Core found
T373C 1538:584.612   AP[0]: AHB-AP ROM base: 0xE00FF000
T373C 1538:594.207   CPUID register: 0x411FC231. Implementer code: 0x41 (ARM)
T373C 1538:598.384   Found Cortex-M3 r1p1, Little endian.
T373C 1538:715.706   CPU could not be halted
T373C 1538:715.789    -- CPU_ReadMem(4 bytes @ 0x400F2000)
T373C 1538:716.679    -- CPU_ReadMem(4 bytes @ 0x40040000)
T373C 1538:717.562   CPU is running
T373C 1538:717.622    -- CPU_WriteMem(4 bytes @ 0xE000EDFC)
T373C 1538:731.580   Reset: Failed. Toggling reset pin and trying reset strategy again.
T373C 1538:939.731   RESET (pin 15) high, but should be low. Please check target hardware.
T373C 1538:947.855   Found SW-DP with ID 0x1BA01477
T373C 1538:955.843   Old FW that does not support reading DPIDR via DAP jobs
T373C 1538:972.317   Unknown DP version. Assuming DPv0
T373C 1538:978.797   AP map detection skipped. Manually configured AP map found.
T373C 1538:985.359   AP[0]: AHB-AP (IDR: Not set)
T373C 1539:004.212   AP[0]: Core found
T373C 1539:010.628   AP[0]: AHB-AP ROM base: 0xE00FF000
T373C 1539:023.882   CPUID register: 0x411FC231. Implementer code: 0x41 (ARM)
T373C 1539:030.504   Found Cortex-M3 r1p1, Little endian.
T373C 1539:132.060   CPU is running
T373C 1539:132.136    -- CPU_WriteMem(4 bytes @ 0xE000EDF0)
T373C 1539:133.569   CPU is running
T373C 1539:133.628    -- CPU_WriteMem(4 bytes @ 0xE000EDFC)
T373C 1539:146.826   Reset: Halt core after reset via DEMCR.VC_CORERESET.
T373C 1539:160.128   Reset: Reset device via AIRCR.SYSRESETREQ.
T373C 1539:160.199   CPU is running
T373C 1539:160.232    -- CPU_WriteMem(4 bytes @ 0xE000ED0C)
T373C 1539:214.609    -- CPU_ReadMem(4 bytes @ 0xE000EDF0)
T373C 1539:215.567    -- CPU_ReadMem(4 bytes @ 0xE000EDF0)
T373C 1539:216.720    -- CPU_ReadMem(4 bytes @ 0xE000EDF0)
T373C 1539:217.694    -- CPU_ReadMem(4 bytes @ 0xE000EDF0)
T373C 1539:218.814    -- CPU_ReadMem(4 bytes @ 0xE000EDF0)
T373C 1539:219.932    -- CPU_ReadMem(4 bytes @ 0xE000EDF0)
T373C 1539:221.097    -- CPU_ReadMem(4 bytes @ 0xE000EDF0)
T373C 1539:222.224    -- CPU_ReadMem(4 bytes @ 0xE000EDF0)
T373C 1539:223.310    -- CPU_ReadMem(4 bytes @ 0xE000EDF0)
T373C 1539:224.434    -- CPU_ReadMem(4 bytes @ 0xE000EDF0)
T373C 1539:225.571    -- CPU_ReadMem(4 bytes @ 0xE000EDF0)
T373C 1539:226.720    -- CPU_ReadMem(4 bytes @ 0xE000EDF0)
T373C 1539:227.689    -- CPU_ReadMem(4 bytes @ 0xE000EDF0)
T373C 1539:228.695    -- CPU_ReadMem(4 bytes @ 0xE000EDF0)
T373C 1539:229.680    -- CPU_ReadMem(4 bytes @ 0xE000EDF0)
T373C 1539:230.667    -- CPU_ReadMem(4 bytes @ 0xE000EDF0)
T373C 1539:231.540    -- CPU_ReadMem(4 bytes @ 0xE000EDF0)
T373C 1539:232.565    -- CPU_ReadMem(4 bytes @ 0xE000EDF0)
T373C 1539:233.560    -- CPU_ReadMem(4 bytes @ 0xE000EDF0)
T373C 1539:234.531    -- CPU_ReadMem(4 bytes @ 0xE000EDF0)
T373C 1539:235.535    -- CPU_ReadMem(4 bytes @ 0xE000EDF0)
T373C 1539:236.570    -- CPU_ReadMem(4 bytes @ 0xE000EDF0)
T373C 1539:237.560    -- CPU_ReadMem(4 bytes @ 0xE000EDF0)
T373C 1539:238.539    -- CPU_ReadMem(4 bytes @ 0xE000EDF0)
T373C 1539:239.535    -- CPU_ReadMem(4 bytes @ 0xE000EDF0)
T373C 1539:240.566    -- CPU_ReadMem(4 bytes @ 0xE000EDF0)
T373C 1539:241.558    -- CPU_ReadMem(4 bytes @ 0xE000EDF0)
T373C 1539:242.558    -- CPU_ReadMem(4 bytes @ 0xE000EDF0)
T373C 1539:243.569    -- CPU_ReadMem(4 bytes @ 0xE000EDF0)
T373C 1539:244.558    -- CPU_ReadMem(4 bytes @ 0xE000EDF0)
T373C 1539:245.562    -- CPU_ReadMem(4 bytes @ 0xE000EDF0)
T373C 1539:246.539    -- CPU_ReadMem(4 bytes @ 0xE000EDF0)
T373C 1539:247.538    -- CPU_ReadMem(4 bytes @ 0xE000EDF0)
T373C 1539:248.563    -- CPU_ReadMem(4 bytes @ 0xE000EDF0)
T373C 1539:249.561    -- CPU_ReadMem(4 bytes @ 0xE000EDF0)
T373C 1539:250.547    -- CPU_ReadMem(4 bytes @ 0xE000EDF0)
T373C 1539:251.563    -- CPU_ReadMem(4 bytes @ 0xE000EDF0)
T373C 1539:252.545    -- CPU_ReadMem(4 bytes @ 0xE000EDF0)
T373C 1539:253.564    -- CPU_ReadMem(4 bytes @ 0xE000EDF0)
T373C 1539:254.564    -- CPU_ReadMem(4 bytes @ 0xE000EDF0)
T373C 1539:255.689    -- CPU_ReadMem(4 bytes @ 0xE000EDF0)
T373C 1539:256.665    -- CPU_ReadMem(4 bytes @ 0xE000EDF0)
T373C 1539:257.513    -- CPU_ReadMem(4 bytes @ 0xE000EDF0)
T373C 1539:258.418    -- CPU_ReadMem(4 bytes @ 0xE000EDF0)
T373C 1539:259.295    -- CPU_ReadMem(4 bytes @ 0xE000EDF0)
T373C 1539:260.159    -- CPU_ReadMem(4 bytes @ 0xE000EDF0)
T373C 1539:260.985    -- CPU_ReadMem(4 bytes @ 0xE000EDF0)
T373C 1539:261.888    -- CPU_ReadMem(4 bytes @ 0xE000EDF0)
T373C 1539:262.763    -- CPU_ReadMem(4 bytes @ 0xE000EDF0)
T373C 1539:263.635    -- CPU_ReadMem(4 bytes @ 0xE000EDF0)
T373C 1539:264.510    -- CPU_ReadMem(4 bytes @ 0xE000EDF0)
T373C 1539:265.516    -- CPU_ReadMem(4 bytes @ 0xE000EDF0)
T373C 1539:266.563    -- CPU_ReadMem(4 bytes @ 0xE000EDF0)
T373C 1539:267.718    -- CPU_ReadMem(4 bytes @ 0xE000EDF0)
T373C 1539:268.846    -- CPU_ReadMem(4 bytes @ 0xE000EDF0)
T373C 1539:269.815    -- CPU_ReadMem(4 bytes @ 0xE000EDF0)
T373C 1539:270.969    -- CPU_ReadMem(4 bytes @ 0xE000EDF0)
T373C 1539:271.921    -- CPU_ReadMem(4 bytes @ 0xE000EDF0)
T373C 1539:272.917    -- CPU_ReadMem(4 bytes @ 0xE000EDF0)
T373C 1539:273.774    -- CPU_ReadMem(4 bytes @ 0xE000EDF0)
T373C 1539:274.649    -- CPU_ReadMem(4 bytes @ 0xE000EDF0)
T373C 1539:275.538    -- CPU_ReadMem(4 bytes @ 0xE000EDF0)
T373C 1539:276.561    -- CPU_ReadMem(4 bytes @ 0xE000EDF0)
T373C 1539:277.543    -- CPU_ReadMem(4 bytes @ 0xE000EDF0)
T373C 1539:278.559    -- CPU_ReadMem(4 bytes @ 0xE000EDF0)
T373C 1539:279.538    -- CPU_ReadMem(4 bytes @ 0xE000EDF0)
T373C 1539:280.560    -- CPU_ReadMem(4 bytes @ 0xE000EDF0)
T373C 1539:281.694    -- CPU_ReadMem(4 bytes @ 0xE000EDF0)
T373C 1539:282.661    -- CPU_ReadMem(4 bytes @ 0xE000EDF0)
T373C 1539:283.538    -- CPU_ReadMem(4 bytes @ 0xE000EDF0)
T373C 1539:284.563    -- CPU_ReadMem(4 bytes @ 0xE000EDF0)
T373C 1539:285.530    -- CPU_ReadMem(4 bytes @ 0xE000EDF0)
T373C 1539:286.406    -- CPU_ReadMem(4 bytes @ 0xE000EDF0)
T373C 1539:287.539    -- CPU_ReadMem(4 bytes @ 0xE000EDF0)
T373C 1539:288.394    -- CPU_ReadMem(4 bytes @ 0xE000EDF0)
T373C 1539:289.276    -- CPU_ReadMem(4 bytes @ 0xE000EDF0)
T373C 1539:290.155    -- CPU_ReadMem(4 bytes @ 0xE000EDF0)
T373C 1539:291.057    -- CPU_ReadMem(4 bytes @ 0xE000EDF0)
T373C 1539:292.026    -- CPU_ReadMem(4 bytes @ 0xE000EDF0)
T373C 1539:292.874    -- CPU_ReadMem(4 bytes @ 0xE000EDF0)
T373C 1539:293.779    -- CPU_ReadMem(4 bytes @ 0xE000EDF0)
T373C 1539:294.648    -- CPU_ReadMem(4 bytes @ 0xE000EDF0)
T373C 1539:295.526    -- CPU_ReadMem(4 bytes @ 0xE000EDF0)
T373C 1539:296.516    -- CPU_ReadMem(4 bytes @ 0xE000EDF0)
T373C 1539:297.521    -- CPU_ReadMem(4 bytes @ 0xE000EDF0)
T373C 1539:298.525    -- CPU_ReadMem(4 bytes @ 0xE000EDF0)
T373C 1539:299.529    -- CPU_ReadMem(4 bytes @ 0xE000EDF0)
T373C 1539:300.412    -- CPU_ReadMem(4 bytes @ 0xE000EDF0)
T373C 1539:301.278    -- CPU_ReadMem(4 bytes @ 0xE000EDF0)
T373C 1539:302.158    -- CPU_ReadMem(4 bytes @ 0xE000EDF0)
T373C 1539:303.055    -- CPU_ReadMem(4 bytes @ 0xE000EDF0)
T373C 1539:304.020    -- CPU_ReadMem(4 bytes @ 0xE000EDF0)
T373C 1539:304.900    -- CPU_ReadMem(4 bytes @ 0xE000EDF0)
T373C 1539:305.803    -- CPU_ReadMem(4 bytes @ 0xE000EDF0)
T373C 1539:306.781    -- CPU_ReadMem(4 bytes @ 0xE000EDF0)
T373C 1539:307.653    -- CPU_ReadMem(4 bytes @ 0xE000EDF0)
T373C 1539:308.527    -- CPU_ReadMem(4 bytes @ 0xE000EDF0)
T373C 1539:309.527    -- CPU_ReadMem(4 bytes @ 0xE000EDF0)
T373C 1539:310.374    -- CPU_ReadMem(4 bytes @ 0xE000EDF0)
T373C 1539:311.275    -- CPU_ReadMem(4 bytes @ 0xE000EDF0)
T373C 1539:312.155    -- CPU_ReadMem(4 bytes @ 0xE000EDF0)
T373C 1539:313.027    -- CPU_ReadMem(4 bytes @ 0xE000EDF0)
T373C 1539:313.900    -- CPU_ReadMem(4 bytes @ 0xE000EDF0)
T373C 1539:314.782    -- CPU_ReadMem(4 bytes @ 0xE000EDF0)
T373C 1539:315.629    -- CPU_ReadMem(4 bytes @ 0xE000EDF0)
T373C 1539:316.505    -- CPU_ReadMem(4 bytes @ 0xE000EDF0)
T373C 1539:317.382    -- CPU_ReadMem(4 bytes @ 0xE000EDF0)
T373C 1539:318.271    -- CPU_ReadMem(4 bytes @ 0xE000EDF0)
T373C 1539:319.150    -- CPU_ReadMem(4 bytes @ 0xE000EDF0)
T373C 1539:320.026    -- CPU_ReadMem(4 bytes @ 0xE000EDF0)
T373C 1539:320.902    -- CPU_ReadMem(4 bytes @ 0xE000EDF0)
T373C 1539:321.780    -- CPU_ReadMem(4 bytes @ 0xE000EDF0)
T373C 1539:322.629    -- CPU_ReadMem(4 bytes @ 0xE000EDF0)
T373C 1539:323.495    -- CPU_ReadMem(4 bytes @ 0xE000EDF0)
T373C 1539:324.380    -- CPU_ReadMem(4 bytes @ 0xE000EDF0)
T373C 1539:325.279    -- CPU_ReadMem(4 bytes @ 0xE000EDF0)
T373C 1539:326.151    -- CPU_ReadMem(4 bytes @ 0xE000EDF0)
T373C 1539:327.022    -- CPU_ReadMem(4 bytes @ 0xE000EDF0)
T373C 1539:327.901    -- CPU_ReadMem(4 bytes @ 0xE000EDF0)
T373C 1539:328.746    -- CPU_ReadMem(4 bytes @ 0xE000EDF0)
T373C 1539:329.638    -- CPU_ReadMem(4 bytes @ 0xE000EDF0)
T373C 1539:330.484    -- CPU_ReadMem(4 bytes @ 0xE000EDF0)
T373C 1539:331.371    -- CPU_ReadMem(4 bytes @ 0xE000EDF0)
T373C 1539:332.272    -- CPU_ReadMem(4 bytes @ 0xE000EDF0)
T373C 1539:333.147    -- CPU_ReadMem(4 bytes @ 0xE000EDF0)
T373C 1539:334.001    -- CPU_ReadMem(4 bytes @ 0xE000EDF0)
T373C 1539:334.901    -- CPU_ReadMem(4 bytes @ 0xE000EDF0)
T373C 1539:335.767    -- CPU_ReadMem(4 bytes @ 0xE000EDF0)
T373C 1539:336.653    -- CPU_ReadMem(4 bytes @ 0xE000EDF0)
T373C 1539:337.510    -- CPU_ReadMem(4 bytes @ 0xE000EDF0)
T373C 1539:338.400    -- CPU_ReadMem(4 bytes @ 0xE000EDF0)
T373C 1539:339.231    -- CPU_ReadMem(4 bytes @ 0xE000EDF0)
T373C 1539:340.105    -- CPU_ReadMem(4 bytes @ 0xE000EDF0)
T373C 1539:340.979    -- CPU_ReadMem(4 bytes @ 0xE000EDF0)
T373C 1539:341.852    -- CPU_ReadMem(4 bytes @ 0xE000EDF0)
T373C 1539:342.725    -- CPU_ReadMem(4 bytes @ 0xE000EDF0)
T373C 1539:343.614    -- CPU_ReadMem(4 bytes @ 0xE000EDF0)
T373C 1539:344.482    -- CPU_ReadMem(4 bytes @ 0xE000EDF0)
T373C 1539:345.349    -- CPU_ReadMem(4 bytes @ 0xE000EDF0)
T373C 1539:346.226    -- CPU_ReadMem(4 bytes @ 0xE000EDF0)
T373C 1539:347.102    -- CPU_ReadMem(4 bytes @ 0xE000EDF0)
T373C 1539:347.976    -- CPU_ReadMem(4 bytes @ 0xE000EDF0)
T373C 1539:348.848    -- CPU_ReadMem(4 bytes @ 0xE000EDF0)
T373C 1539:349.723    -- CPU_ReadMem(4 bytes @ 0xE000EDF0)
T373C 1539:350.602    -- CPU_ReadMem(4 bytes @ 0xE000EDF0)
T373C 1539:351.468    -- CPU_ReadMem(4 bytes @ 0xE000EDF0)
T373C 1539:352.348    -- CPU_ReadMem(4 bytes @ 0xE000EDF0)
T373C 1539:353.225    -- CPU_ReadMem(4 bytes @ 0xE000EDF0)
T373C 1539:354.101    -- CPU_ReadMem(4 bytes @ 0xE000EDF0)
T373C 1539:354.973    -- CPU_ReadMem(4 bytes @ 0xE000EDF0)
T373C 1539:355.853    -- CPU_ReadMem(4 bytes @ 0xE000EDF0)
T373C 1539:356.723    -- CPU_ReadMem(4 bytes @ 0xE000EDF0)
T373C 1539:357.599    -- CPU_ReadMem(4 bytes @ 0xE000EDF0)
T373C 1539:358.477    -- CPU_ReadMem(4 bytes @ 0xE000EDF0)
T373C 1539:359.351    -- CPU_ReadMem(4 bytes @ 0xE000EDF0)
T373C 1539:360.102    -- CPU_ReadMem(4 bytes @ 0xE000EDF0)
T373C 1539:360.977    -- CPU_ReadMem(4 bytes @ 0xE000EDF0)
T373C 1539:361.849    -- CPU_ReadMem(4 bytes @ 0xE000EDF0)
T373C 1539:362.732    -- CPU_ReadMem(4 bytes @ 0xE000EDF0)
T373C 1539:363.610    -- CPU_ReadMem(4 bytes @ 0xE000EDF0)
T373C 1539:364.477    -- CPU_ReadMem(4 bytes @ 0xE000EDF0)
T373C 1539:365.349    -- CPU_ReadMem(4 bytes @ 0xE000EDF0)
T373C 1539:366.101    -- CPU_ReadMem(4 bytes @ 0xE000EDF0)
T373C 1539:366.974    -- CPU_ReadMem(4 bytes @ 0xE000EDF0)
T373C 1539:367.850    -- CPU_ReadMem(4 bytes @ 0xE000EDF0)
T373C 1539:368.723    -- CPU_ReadMem(4 bytes @ 0xE000EDF0)
T373C 1539:369.605    -- CPU_ReadMem(4 bytes @ 0xE000EDF0)
T373C 1539:370.477    -- CPU_ReadMem(4 bytes @ 0xE000EDF0)
T373C 1539:371.349    -- CPU_ReadMem(4 bytes @ 0xE000EDF0)
T373C 1539:372.231    -- CPU_ReadMem(4 bytes @ 0xE000EDF0)
T373C 1539:373.106    -- CPU_ReadMem(4 bytes @ 0xE000EDF0)
T373C 1539:373.974    -- CPU_ReadMem(4 bytes @ 0xE000EDF0)
T373C 1539:374.861    -- CPU_ReadMem(4 bytes @ 0xE000EDF0)
T373C 1539:375.715    -- CPU_ReadMem(4 bytes @ 0xE000EDF0)
T373C 1539:376.608    -- CPU_ReadMem(4 bytes @ 0xE000EDF0)
T373C 1539:377.499    -- CPU_ReadMem(4 bytes @ 0xE000EDF0)
T373C 1539:378.342    -- CPU_ReadMem(4 bytes @ 0xE000EDF0)
T373C 1539:379.222    -- CPU_ReadMem(4 bytes @ 0xE000EDF0)
T373C 1539:380.160    -- CPU_ReadMem(4 bytes @ 0xE000EDF0)
T373C 1539:381.005    -- CPU_ReadMem(4 bytes @ 0xE000EDF0)
T373C 1539:381.854    -- CPU_ReadMem(4 bytes @ 0xE000EDF0)
T373C 1539:382.724    -- CPU_ReadMem(4 bytes @ 0xE000EDF0)
T373C 1539:383.639    -- CPU_ReadMem(4 bytes @ 0xE000EDF0)
T373C 1539:384.514    -- CPU_ReadMem(4 bytes @ 0xE000EDF0)
T373C 1539:385.396    -- CPU_ReadMem(4 bytes @ 0xE000EDF0)
T373C 1539:386.315    -- CPU_ReadMem(4 bytes @ 0xE000EDF0)
T373C 1539:387.283    -- CPU_ReadMem(4 bytes @ 0xE000EDF0)
T373C 1539:388.162    -- CPU_ReadMem(4 bytes @ 0xE000EDF0)
T373C 1539:389.062    -- CPU_ReadMem(4 bytes @ 0xE000EDF0)
T373C 1539:389.999    -- CPU_ReadMem(4 bytes @ 0xE000EDF0)
T373C 1539:390.869    -- CPU_ReadMem(4 bytes @ 0xE000EDF0)
T373C 1539:391.860    -- CPU_ReadMem(4 bytes @ 0xE000EDF0)
T373C 1539:392.983    -- CPU_ReadMem(4 bytes @ 0xE000EDF0)
T373C 1539:393.867    -- CPU_ReadMem(4 bytes @ 0xE000EDF0)
T373C 1539:394.745    -- CPU_ReadMem(4 bytes @ 0xE000EDF0)
T373C 1539:395.634    -- CPU_ReadMem(4 bytes @ 0xE000EDF0)
T373C 1539:396.498    -- CPU_ReadMem(4 bytes @ 0xE000EDF0)
T373C 1539:397.363    -- CPU_ReadMem(4 bytes @ 0xE000EDF0)
T373C 1539:398.257    -- CPU_ReadMem(4 bytes @ 0xE000EDF0)
T373C 1539:399.161    -- CPU_ReadMem(4 bytes @ 0xE000EDF0)
T373C 1539:400.183    -- CPU_ReadMem(4 bytes @ 0xE000EDF0)
T373C 1539:401.119    -- CPU_ReadMem(4 bytes @ 0xE000EDF0)
T373C 1539:401.982    -- CPU_ReadMem(4 bytes @ 0xE000EDF0)
T373C 1539:402.860    -- CPU_ReadMem(4 bytes @ 0xE000EDF0)
T373C 1539:403.731    -- CPU_ReadMem(4 bytes @ 0xE000EDF0)
T373C 1539:404.568    -- CPU_ReadMem(4 bytes @ 0xE000EDF0)
T373C 1539:405.472    -- CPU_ReadMem(4 bytes @ 0xE000EDF0)
T373C 1539:406.220    -- CPU_ReadMem(4 bytes @ 0xE000EDF0)
T373C 1539:407.114    -- CPU_ReadMem(4 bytes @ 0xE000EDF0)
T373C 1539:407.841    -- CPU_ReadMem(4 bytes @ 0xE000EDF0)
T373C 1539:408.694    -- CPU_ReadMem(4 bytes @ 0xE000EDF0)
T373C 1539:409.471    -- CPU_ReadMem(4 bytes @ 0xE000EDF0)
T373C 1539:410.219    -- CPU_ReadMem(4 bytes @ 0xE000EDF0)
T373C 1539:411.000    -- CPU_ReadMem(4 bytes @ 0xE000EDF0)
T373C 1539:411.741    -- CPU_ReadMem(4 bytes @ 0xE000EDF0)
T373C 1539:412.514    -- CPU_ReadMem(4 bytes @ 0xE000EDF0)
T373C 1539:413.381    -- CPU_ReadMem(4 bytes @ 0xE000EDF0)
T373C 1539:414.264    -- CPU_ReadMem(4 bytes @ 0xE000EDF0)
T373C 1539:415.137    -- CPU_ReadMem(4 bytes @ 0xE000EDF0)
T373C 1539:415.966    -- CPU_ReadMem(4 bytes @ 0xE000EDF0)
T373C 1539:416.732    -- CPU_ReadMem(4 bytes @ 0xE000EDF0)
T373C 1539:417.483    -- CPU_ReadMem(4 bytes @ 0xE000EDF0)
T373C 1539:418.262    -- CPU_ReadMem(4 bytes @ 0xE000EDF0)
T373C 1539:419.137    -- CPU_ReadMem(4 bytes @ 0xE000EDF0)
T373C 1539:420.010    -- CPU_ReadMem(4 bytes @ 0xE000EDF0)
T373C 1539:420.887    -- CPU_ReadMem(4 bytes @ 0xE000EDF0)
T373C 1539:421.761    -- CPU_ReadMem(4 bytes @ 0xE000EDF0)
T373C 1539:422.639    -- CPU_ReadMem(4 bytes @ 0xE000EDF0)
T373C 1539:423.463    -- CPU_ReadMem(4 bytes @ 0xE000EDF0)
T373C 1539:424.259    -- CPU_ReadMem(4 bytes @ 0xE000EDF0)
T373C 1539:425.136    -- CPU_ReadMem(4 bytes @ 0xE000EDF0)
T373C 1539:425.886    -- CPU_ReadMem(4 bytes @ 0xE000EDF0)
T373C 1539:426.764    -- CPU_ReadMem(4 bytes @ 0xE000EDF0)
T373C 1539:427.635    -- CPU_ReadMem(4 bytes @ 0xE000EDF0)
T373C 1539:428.487    -- CPU_ReadMem(4 bytes @ 0xE000EDF0)
T373C 1539:429.225    -- CPU_ReadMem(4 bytes @ 0xE000EDF0)
T373C 1539:430.009    -- CPU_ReadMem(4 bytes @ 0xE000EDF0)
T373C 1539:430.888    -- CPU_ReadMem(4 bytes @ 0xE000EDF0)
T373C 1539:431.762    -- CPU_ReadMem(4 bytes @ 0xE000EDF0)
T373C 1539:432.634    -- CPU_ReadMem(4 bytes @ 0xE000EDF0)
T373C 1539:433.487    -- CPU_ReadMem(4 bytes @ 0xE000EDF0)
T373C 1539:434.233    -- CPU_ReadMem(4 bytes @ 0xE000EDF0)
T373C 1539:435.095    -- CPU_ReadMem(4 bytes @ 0xE000EDF0)
T373C 1539:435.897    -- CPU_ReadMem(4 bytes @ 0xE000EDF0)
T373C 1539:436.760    -- CPU_ReadMem(4 bytes @ 0xE000EDF0)
T373C 1539:437.638    -- CPU_ReadMem(4 bytes @ 0xE000EDF0)
T373C 1539:438.490    -- CPU_ReadMem(4 bytes @ 0xE000EDF0)
T373C 1539:439.223    -- CPU_ReadMem(4 bytes @ 0xE000EDF0)
T373C 1539:439.970    -- CPU_ReadMem(4 bytes @ 0xE000EDF0)
T373C 1539:440.761    -- CPU_ReadMem(4 bytes @ 0xE000EDF0)
T373C 1539:441.638    -- CPU_ReadMem(4 bytes @ 0xE000EDF0)
T373C 1539:442.447    -- CPU_ReadMem(4 bytes @ 0xE000EDF0)
T373C 1539:443.219    -- CPU_ReadMem(4 bytes @ 0xE000EDF0)
T373C 1539:443.971    -- CPU_ReadMem(4 bytes @ 0xE000EDF0)
T373C 1539:444.719    -- CPU_ReadMem(4 bytes @ 0xE000EDF0)
T373C 1539:445.470    -- CPU_ReadMem(4 bytes @ 0xE000EDF0)
T373C 1539:446.216    -- CPU_ReadMem(4 bytes @ 0xE000EDF0)
T373C 1539:446.968    -- CPU_ReadMem(4 bytes @ 0xE000EDF0)
T373C 1539:447.716    -- CPU_ReadMem(4 bytes @ 0xE000EDF0)
T373C 1539:448.465    -- CPU_ReadMem(4 bytes @ 0xE000EDF0)
T373C 1539:449.218    -- CPU_ReadMem(4 bytes @ 0xE000EDF0)
T373C 1539:449.970    -- CPU_ReadMem(4 bytes @ 0xE000EDF0)
T373C 1539:450.969    -- CPU_ReadMem(4 bytes @ 0xE000EDF0)
T373C 1539:451.720    -- CPU_ReadMem(4 bytes @ 0xE000EDF0)
T373C 1539:452.470    -- CPU_ReadMem(4 bytes @ 0xE000EDF0)
T373C 1539:453.284    -- CPU_ReadMem(4 bytes @ 0xE000EDF0)
T373C 1539:454.149    -- CPU_ReadMem(4 bytes @ 0xE000EDF0)
T373C 1539:455.023    -- CPU_ReadMem(4 bytes @ 0xE000EDF0)
T373C 1539:455.898    -- CPU_ReadMem(4 bytes @ 0xE000EDF0)
T373C 1539:456.919    -- CPU_ReadMem(4 bytes @ 0xE000EDF0)
T373C 1539:457.753    -- CPU_ReadMem(4 bytes @ 0xE000EDF0)
T373C 1539:458.457    -- CPU_ReadMem(4 bytes @ 0xE000EDF0)
T373C 1539:459.251    -- CPU_ReadMem(4 bytes @ 0xE000EDF0)
T373C 1539:460.001    -- CPU_ReadMem(4 bytes @ 0xE000EDF0)
T373C 1539:460.750    -- CPU_ReadMem(4 bytes @ 0xE000EDF0)
T373C 1539:461.463    -- CPU_ReadMem(4 bytes @ 0xE000EDF0)
T373C 1539:462.252    -- CPU_ReadMem(4 bytes @ 0xE000EDF0)
T373C 1539:463.000    -- CPU_ReadMem(4 bytes @ 0xE000EDF0)
T373C 1539:463.749    -- CPU_ReadMem(4 bytes @ 0xE000EDF0)
T373C 1539:464.484    -- CPU_ReadMem(4 bytes @ 0xE000EDF0)
T373C 1539:465.249    -- CPU_ReadMem(4 bytes @ 0xE000EDF0)
T373C 1539:465.974    -- CPU_ReadMem(4 bytes @ 0xE000EDF0)
T373C 1539:470.552   Reset: S_RESET_ST never gets cleared. CPU seems to be kept in reset forever.
T373C 1539:474.268   Reset: Using fallback: Reset pin.
T373C 1539:474.301   CPU is running
T373C 1539:474.319    -- CPU_WriteMem(4 bytes @ 0xE000EDF0)
T373C 1539:475.315   CPU is running
T373C 1539:475.352    -- CPU_WriteMem(4 bytes @ 0xE000EDFC)
T373C 1539:479.706   Reset: Halt core after reset via DEMCR.VC_CORERESET.
T373C 1539:483.192   Reset: Reset device via reset pin
T373C 1539:688.941   RESET (pin 15) high, but should be low. Please check target hardware.
T373C 1539:818.288   Reset: VC_CORERESET did not halt CPU. (Debug logic also reset by reset pin?).
T373C 1539:824.409   Reset: Reconnecting and manually halting CPU.
T373C 1539:832.479   Found SW-DP with ID 0x1BA01477
T373C 1539:841.682   Old FW that does not support reading DPIDR via DAP jobs
T373C 1539:859.769   Unknown DP version. Assuming DPv0
T373C 1539:865.998   AP map detection skipped. Manually configured AP map found.
T373C 1539:873.228   AP[0]: AHB-AP (IDR: Not set)
T373C 1539:889.377   AP[0]: Core found
T373C 1539:893.496   AP[0]: AHB-AP ROM base: 0xE00FF000
T373C 1539:902.871   CPUID register: 0x411FC231. Implementer code: 0x41 (ARM)
T373C 1539:906.364   Found Cortex-M3 r1p1, Little endian.
T373C 1540:018.187   CPU could not be halted
T373C 1540:018.257   CPU is running
T373C 1540:018.290    -- CPU_WriteMem(4 bytes @ 0xE000EDFC)
T373C 1540:024.701    -- CPU_ReadMem(4 bytes @ 0xE000EDF0)
T373C 1540:032.935   Reset: Core did not halt after reset, trying to disable WDT.
T373C 1540:032.990   CPU is running
T373C 1540:033.019    -- CPU_WriteMem(4 bytes @ 0xE000EDF0)
T373C 1540:034.056   CPU is running
T373C 1540:034.115    -- CPU_WriteMem(4 bytes @ 0xE000EDFC)
T373C 1540:041.598   Reset: Halt core after reset via DEMCR.VC_CORERESET.
T373C 1540:048.424   Reset: Reset device via reset pin
T373C 1540:254.531   RESET (pin 15) high, but should be low. Please check target hardware.
T373C 1540:383.764   Reset: VC_CORERESET did not halt CPU. (Debug logic also reset by reset pin?).
T373C 1540:392.153   Reset: Reconnecting and manually halting CPU.
T373C 1540:400.183   Found SW-DP with ID 0x1BA01477
T373C 1540:409.431   Old FW that does not support reading DPIDR via DAP jobs
T373C 1540:426.949   Unknown DP version. Assuming DPv0
T373C 1540:433.073   AP map detection skipped. Manually configured AP map found.
T373C 1540:439.570   AP[0]: AHB-AP (IDR: Not set)
T373C 1540:458.886   AP[0]: Core found
T373C 1540:465.009   AP[0]: AHB-AP ROM base: 0xE00FF000
T373C 1540:477.451   CPUID register: 0x411FC231. Implementer code: 0x41 (ARM)
T373C 1540:483.535   Found Cortex-M3 r1p1, Little endian.
T373C 1540:596.175   CPU could not be halted
T373C 1540:596.257    -- CPU_ReadMem(4 bytes @ 0x400F2000)
T373C 1540:597.114    -- CPU_ReadMem(4 bytes @ 0x40040000)
T373C 1540:598.058   CPU is running
T373C 1540:598.118    -- CPU_WriteMem(4 bytes @ 0xE000EDFC)
T373C 1540:600.924   CPU is running
T373C 1540:600.984    -- CPU_WriteMem(4 bytes @ 0xE0002000)
T373C 1540:602.053    -- CPU_ReadMem(4 bytes @ 0xE000EDFC)
T373C 1540:603.052    -- CPU_ReadMem(4 bytes @ 0xE0001000)
T373C 1540:618.249   CPU could not be halted
T373C 1540:618.311   
  ***** Error: 
T373C 1540:618.336   Failed to halt CPU.
T373C 1540:618.362 - 3393.626ms
T373C 1540:625.598 JLINK_Halt()
T373C 1540:635.611   CPU could not be halted
T373C 1540:635.648 - 10.056ms returns 0x01
T2770 1552:408.837   
  ***** Error: Connection to emulator lost!
T373C 1640:985.023 JLINK_Close()
T373C 1640:988.892 - 3.897ms
T373C 1640:988.929   
T373C 1640:988.944   Closed
